[gd_scene load_steps=3 format=2]

[ext_resource path="res://src/tiles/tileset.tres" type="TileSet" id=1]
[ext_resource path="res://src/game/dungeon/game_of_life.gd" type="Script" id=2]

[node name="Cave1" type="Node2D"]

[node name="Floor" type="TileMap" parent="."]
tile_set = ExtResource( 1 )
cell_size = Vector2( 12, 12 )
format = 1
tile_data = PoolIntArray( -65535, 7, 0, -65534, 7, 0, -65533, 7, 0, -65528, 7, 0, -65527, 6, 0, -65526, 6, 0, 1, 6, 0, 2, 43, 0, 3, 6, 0, 4, 9, 0, 7, 6, 0, 6, 10, 0, 9, 43, 0, 10, 6, 0, 11, 6, 0, 131071, 7, 0, 65536, 6, 0, 65537, 6, 0, 65538, 43, 0, 65539, 38, 0, 65540, 6, 0, 65541, 6, 0, 65542, 10, 0, 65543, 6, 0, 65544, 43, 0, 65545, 38, 0, 65546, 43, 0, 65547, 43, 0, 65548, 44, 0, 196607, 7, 0, 131072, 38, 0, 131073, 43, 0, 131074, 43, 0, 131075, 38, 0, 131076, 43, 0, 131077, 38, 0, 131078, 38, 0, 131079, 43, 0, 131080, 43, 0, 131081, 43, 0, 131082, 43, 0, 131083, 6, 0, 262143, 7, 0, 196608, 6, 0, 196609, 43, 0, 196610, 43, 0, 196611, 37, 0, 196612, 43, 0, 196613, 43, 0, 196614, 43, 0, 196615, 43, 0, 196616, 43, 0, 196617, 6, 0, 196618, 10, 0, 196619, 6, 0, 262144, 10, 0, 262145, 6, 0, 262146, 43, 0, 262147, 43, 0, 262148, 43, 0, 262149, 38, 0, 262150, 43, 0, 262151, 43, 0, 262152, 43, 0, 262153, 38, 0, 262154, 7, 0, 327681, 6, 0, 327682, 6, 0, 327683, 6, 0, 327684, 43, 0, 327685, 43, 0, 327686, 38, 0, 327687, 43, 0, 327688, 6, 0, 327689, 7, 0, 327690, 10, 0, 393218, 9, 0, 393219, 43, 0, 393220, 43, 0, 393221, 6, 0, 393222, 10, 0, 393223, 6, 0, 393224, 10, 0, 458754, 10, 0, 458755, 6, 0, 458756, 43, 0, 458757, 6, 0, 524291, 7, 0, 524292, 10, 0, 524293, 7, 0 )

[node name="DataMap" type="TileMap" parent="."]
visible = false
tile_set = ExtResource( 1 )
cell_size = Vector2( 12, 12 )
format = 1
tile_data = PoolIntArray( -65535, 7, 0, -65534, 7, 0, -65533, 7, 0, -65528, 7, 0, -65527, 6, 0, -65526, 6, 0, 1, 6, 0, 2, 43, 0, 3, 6, 0, 4, 9, 0, 7, 6, 0, 6, 10, 0, 9, 43, 0, 10, 6, 0, 11, 6, 0, 131071, 7, 0, 65536, 6, 0, 65537, 6, 0, 65538, 43, 0, 65539, 43, 0, 65540, 6, 0, 65541, 6, 0, 65542, 10, 0, 65543, 6, 0, 65544, 43, 0, 65545, 43, 0, 65546, 43, 0, 65547, 43, 0, 65548, 44, 0, 196607, 7, 0, 131072, 43, 0, 131073, 43, 0, 131074, 43, 0, 131075, 43, 0, 131076, 43, 0, 131077, 43, 0, 131078, 43, 0, 131079, 43, 0, 131080, 43, 0, 131081, 43, 0, 131082, 43, 0, 131083, 6, 0, 262143, 7, 0, 196608, 6, 0, 196609, 43, 0, 196610, 43, 0, 196611, 43, 0, 196612, 43, 0, 196613, 43, 0, 196614, 43, 0, 196615, 43, 0, 196616, 43, 0, 196617, 6, 0, 196618, 10, 0, 196619, 6, 0, 262144, 10, 0, 262145, 6, 0, 262146, 43, 0, 262147, 43, 0, 262148, 43, 0, 262149, 43, 0, 262150, 43, 0, 262151, 43, 0, 262152, 43, 0, 262153, 43, 0, 262154, 7, 0, 327681, 6, 0, 327682, 6, 0, 327683, 6, 0, 327684, 43, 0, 327685, 43, 0, 327686, 43, 0, 327687, 43, 0, 327688, 6, 0, 327689, 7, 0, 327690, 10, 0, 393218, 9, 0, 393219, 43, 0, 393220, 43, 0, 393221, 6, 0, 393222, 10, 0, 393223, 6, 0, 393224, 10, 0, 458754, 10, 0, 458755, 6, 0, 458756, 43, 0, 458757, 6, 0, 524291, 7, 0, 524292, 10, 0, 524293, 7, 0 )

[node name="Actors" type="TileMap" parent="."]
tile_set = ExtResource( 1 )
cell_size = Vector2( 12, 12 )
format = 1

[node name="Generator" type="Node2D" parent="."]
script = ExtResource( 2 )
tile_to_fill_with = "Plant"
