[gd_scene load_steps=2 format=2]

[ext_resource path="res://src/tiles/tileset.tres" type="TileSet" id=1]

[node name="Cave2" type="Node2D"]

[node name="Floor" type="TileMap" parent="."]
tile_set = ExtResource( 1 )
cell_size = Vector2( 12, 12 )
format = 1
tile_data = PoolIntArray( -65531, 44, 0, 3, 9, 0, 4, 6, 0, 5, 43, 0, 6, 9, 0, 7, 6, 0, 65538, 6, 0, 65539, 9, 0, 65540, 43, 0, 65541, 43, 0, 65542, 43, 0, 65543, 6, 0, 131074, 9, 0, 131075, 43, 0, 131076, 43, 0, 131077, 38, 0, 131078, 43, 0, 131079, 6, 0, 196610, 6, 0, 196611, 9, 0, 196612, 6, 0, 196613, 37, 0, 196614, 37, 0, 196615, 9, 0, 262148, 9, 0, 262149, 9, 0, 262150, 6, 0, 262151, 9, 0 )

[node name="Actors" type="TileMap" parent="."]
tile_set = ExtResource( 1 )
cell_size = Vector2( 12, 12 )
format = 1
