[gd_scene load_steps=3 format=2]

[ext_resource path="res://src/fonts/great24.tres" type="DynamicFont" id=1]
[ext_resource path="res://src/ui/menu_screens/buttons/menuButton.gd" type="Script" id=2]







[node name="MenuButton" type="Button"]
margin_right = 308.0
margin_bottom = 30.0
mouse_default_cursor_shape = 2
flat = true
script = ExtResource( 2 )
__meta__ = {
"_edit_use_anchors_": false
}

[node name="Label" type="Label" parent="."]
anchor_right = 1.0
anchor_bottom = 1.0
custom_fonts/font = ExtResource( 1 )
custom_colors/font_color_shadow = Color( 0.0745098, 0.192157, 0.0196078, 1 )
custom_constants/shadow_offset_x = 2
custom_constants/shadow_offset_y = 3
text = "LABEL"
__meta__ = {
"_edit_use_anchors_": false
}
