[gd_scene load_steps=2 format=2]

[ext_resource path="res://src/ui/menu_screens/buttons/menuButton.tscn" type="PackedScene" id=1]

[node name="NewGameButton" instance=ExtResource( 1 )]

[node name="Label" parent="." index="0"]
text = "New Game"
